{
  "name": "sakila",
  "tables": {
    "Customer": {
      "pk": "Customer.customer_id",
      "fk": []
    },
    "Payment": {
      "pk": "Payment.payment_id",
      "fk": ["Payment.customer_id", "Payment.rental_id"]
    },
    "Film": {
      "pk": "Film.film_id",
      "fk": []
    }
  },
  "dependencies": [
    {
      "from": {
        "attribute": "Customer.first_name",
        "table": "Customer"
      },
      "to": {
        "attribute": "Payment.total_sales",
        "table": "Payment"
      },
      "tables": ["Customer", "Payment", "Rental"],
      "access": [
        ["Customer.customer_id", "Rental.customer_id"],
        ["Rental.rental_id", "Payment.payment_id"]
      ]
    },
    {
      "from": {
        "attribute": "Customer.postal_code",
        "table": "Customer"
      },
      "to": {
        "attribute": "Film.rating",
        "table": "Film"
      },
      "tables": ["Customer", "Film", "Payment", "Rental", "Inventory"],
      "access": [
        ["Customer.customer_id", "Payment.customer_id"],
        ["Payment.rental_id", "Rental.rental_id"],
        ["Rental.inventory_id", "Inventory.inventory_id"],
        ["Inventory.film_id", "Film.film_id"]
      ]
    }
  ]
}
